Position, 0, 40, 80, 120, 160, 200, 240, 280, 320, 360, 400
0, 0, 92841.8, 111929, 130877, 149854, 168691, 160732, 154112, 148744, 144295, 140633
0.0004, 0, 92361.6, 111484, 130447, 149434, 168276, 160322, 153706, 148341, 143894, 140234
0.0008, 0, 91831.4, 111003, 129988, 148988, 167840, 159892, 153282, 147920, 143477, 139820
0.0012, 0, 91265, 110497, 129509, 148524, 167387, 159448, 152843, 147487, 143048, 139395
0.0016, 0, 90668.4, 109969, 129012, 148046, 166921, 158991, 152394, 147043, 142609, 138960
0.002, 0, 90045.1, 109423, 128500, 147554, 166443, 158523, 151934, 146590, 142162, 138517
0.0024, 0, 89397.6, 108860, 127974, 147050, 165955, 158046, 151465, 146129, 141706, 138066
0.0028, 0, 88727.9, 108281, 127435, 146536, 165456, 157560, 150988, 145659, 141243, 137608
0.0032, 0, 88037.4, 107688, 126885, 146011, 164949, 157065, 150504, 145183, 140773, 137144
0.0036, 0, 87327.3, 107081, 126323, 145476, 164433, 156563, 150012, 144699, 140297, 136673
0.004, 0, 86598.7, 106461, 125751, 144933, 163908, 156053, 149513, 144210, 139815, 136197
0.0044, 0, 85852.3, 105829, 125169, 144380, 163376, 155536, 149008, 143714, 139327, 135716
0.0048, 0, 85089, 105185, 124578, 143820, 162837, 155013, 148496, 143212, 138833, 135229
0.0052, 0, 84309.3, 104530, 123977, 143251, 162291, 154482, 147978, 142705, 138334, 134737
0.0056, 0, 83513.9, 103864, 123367, 142675, 161737, 153946, 147455, 142192, 137830, 134241
0.006, 0, 82703.2, 103187, 122749, 142091, 161177, 153404, 146926, 141674, 137322, 133739
0.0064, 0, 81877.7, 102500, 122122, 141500, 160611, 152855, 146392, 141151, 136808, 133234
0.0068, 0, 81037.7, 101803, 121487, 140903, 160038, 152301, 145852, 140623, 136290, 132723
0.0072, 0, 80183.8, 101097, 120845, 140298, 159460, 151742, 145307, 140090, 135767, 132209
0.0076, 0, 79316, 100381, 120195, 139687, 158875, 151177, 144758, 139553, 135240, 131690
0.008, 0, 78434.8, 99656, 119537, 139070, 158285, 150607, 144203, 139011, 134709, 131168
0.0084, 0, 77540.5, 98922.2, 118873, 138446, 157689, 150032, 143644, 138465, 134173, 130641
0.0088, 0, 76633.1, 98179.6, 118201, 137816, 157088, 149452, 143080, 137914, 133634, 130111
0.0092, 0, 75712.9, 97428.4, 117522, 137180, 156481, 148867, 142512, 137359, 133090, 129577
0.0096, 0, 74780.1, 96669, 116837, 136539, 155870, 148278, 141939, 136801, 132543, 129039
0.01, 0, 73834.8, 95901.3, 116144, 135891, 155253, 147683, 141362, 136238, 131992, 128497
0.0104, 0, 72877, 95125.6, 115446, 135238, 154631, 147084, 140781, 135671, 131437, 127952
0.0108, 0, 71906.8, 94342, 114741, 134580, 154004, 146481, 140195, 135100, 130878, 127404
0.0112, 0, 70924.1, 93550.7, 114030, 133916, 153372, 145873, 139606, 134525, 130316, 126852
0.0116, 0, 69928.9, 92751.7, 113312, 133247, 152736, 145261, 139012, 133947, 129750, 126296
0.012, 0, 68921, 91945.3, 112589, 132572, 152094, 144644, 138414, 133365, 129181, 125738
0.0124, 0, 67900.1, 91131.4, 111859, 131892, 151449, 144024, 137813, 132779, 128608, 125176
0.0128, 0, 66865.6, 90310.3, 111124, 131208, 150798, 143399, 137208, 132190, 128032, 124611
0.0132, 0, 65816.7, 89482, 110383, 130518, 150144, 142770, 136599, 131597, 127453, 124043
0.0136, 0, 64752.3, 88646.7, 109636, 129823, 149485, 142137, 135986, 131001, 126871, 123471
0.014, 0, 63670.3, 87804.4, 108883, 129124, 148821, 141501, 135370, 130401, 126285, 122897
0.0144, 0, 62567, 86955.2, 108125, 128420, 148154, 140860, 134750, 129798, 125696, 122320
0.0148, 0, 61435.6, 86099.2, 107362, 127711, 147482, 140215, 134126, 129192, 125104, 121739
0.0152, 0, 60259.9, 85236.4, 106593, 126997, 146806, 139567, 133499, 128582, 124509, 121156
0.0156, 0, 58984.4, 84367.1, 105819, 126279, 146125, 138915, 132869, 127970, 123910, 120570
0.016, 0, 57672.4, 83491.2, 105039, 125556, 145441, 138259, 132235, 127354, 123309, 119981
0.0164, 0, 57141.3, 82608.8, 104255, 124829, 144753, 137600, 131598, 126734, 122705, 119389
0.0168, 0, 56782.3, 81719.9, 103465, 124097, 144061, 136937, 130957, 126112, 122098, 118795
0.0172, 0, 56423.8, 80824.7, 102670, 123361, 143365, 136270, 130313, 125487, 121488, 118197
0.0176, 0, 56065.2, 79923.2, 101870, 122621, 142665, 135600, 129666, 124858, 120875, 117597
0.018, 0, 55706.6, 79015.5, 101065, 121876, 141961, 134927, 129016, 124227, 120259, 116994
0.0184, 0, 55348.1, 78101.5, 100256, 121127, 141253, 134250, 128362, 123592, 119641, 116389
0.0188, 0, 54989.5, 77181.4, 99441.1, 120374, 140542, 133570, 127705, 122955, 119019, 115781
0.0192, 0, 54630.9, 76255.2, 98621.6, 119617, 139827, 132886, 127046, 122315, 118395, 115170
0.0196, 0, 54272.4, 75323, 97797.4, 118856, 139108, 132199, 126383, 121671, 117769, 114557
0.02, 0, 53913.8, 74384.8, 96968.5, 118090, 138386, 131508, 125717, 121025, 117139, 113941
0.0204, 0, 53555.3, 73440.5, 96134.8, 117321, 137660, 130815, 125048, 120376, 116507, 113323
0.0208, 0, 53196.7, 72490.4, 95296.6, 116547, 136931, 130118, 124376, 119725, 115872, 112702
0.0212, 0, 52838.2, 71534.3, 94453.7, 115770, 136198, 129418, 123701, 119070, 115235, 112079
0.0216, 0, 52479.6, 70572.3, 93606.3, 114989, 135462, 128714, 123023, 118413, 114595, 111453
0.022, 0, 52121.1, 69604.5, 92754.4, 114204, 134722, 128008, 122342, 117753, 113952, 110824
0.0224, 0, 51762.5, 68630.8, 91898, 113415, 133978, 127298, 121658, 117090, 113307, 110194
0.0228, 0, 51404, 67651.3, 91037.1, 112622, 133232, 126586, 120971, 116425, 112659, 109561
0.0232, 0, 51045.4, 66665.9, 90171.9, 111825, 132481, 125870, 120282, 115757, 112009, 108925
0.0236, 0, 50686.9, 65674.6, 89302.2, 111025, 131728, 125151, 119590, 115086, 111357, 108287
0.024, 0, 50328.3, 64677.5, 88428.3, 110221, 130971, 124429, 118895, 114413, 110701, 107647
0.0244, 0, 49969.8, 63674.5, 87550, 109413, 130211, 123704, 118197, 113737, 110044, 107005
0.0248, 0, 49611.2, 62665.5, 86667.5, 108602, 129448, 122977, 117496, 113059, 109384, 106360
0.0252, 0, 49252.7, 61650.6, 85780.7, 107787, 128681, 122246, 116793, 112378, 108722, 105713
0.0256, 0, 48894.1, 60629.6, 84889.7, 106968, 127912, 121512, 116087, 111695, 108057, 105064
0.026, 0, 48535.6, 59602.4, 83994.5, 106146, 127139, 120776, 115378, 111009, 107390, 104412
0.0264, 0, 48177, 58568.9, 83095.2, 105320, 126363, 120036, 114667, 110320, 106720, 103758
0.0268, 0, 47818.5, 57528.9, 82191.7, 104491, 125583, 119294, 113953, 109629, 106048, 103102
0.0272, 0, 47459.9, 56482.3, 81284.1, 103658, 124801, 118549, 113236, 108936, 105374, 102444
0.0276, 0, 47101.4, 55428.7, 80372.5, 102822, 124016, 117801, 112517, 108240, 104698, 101784
0.028, 0, 46742.8, 54367.6, 79456.8, 101982, 123227, 117050, 111795, 107542, 104019, 101121
0.0284, 0, 46384.3, 53298.6, 78537.1, 101139, 122435, 116296, 111070, 106841, 103338, 100457
0.0288, 0, 46025.7, 52220.8, 77613.3, 100292, 121641, 115540, 110343, 106138, 102655, 99790
0.0292, 0, 45667.2, 51133.2, 76685.6, 99442.2, 120843, 114781, 109614, 105432, 101970, 99121
0.0296, 0, 45308.6, 50033.9, 75753.9, 98588.9, 120043, 114019, 108882, 104725, 101282, 98450
0.03, 0, 44950.1, 48920, 74818.3, 97732.2, 119239, 113255, 108147, 104014, 100592, 97776.9
0.0304, 0, 44591.5, 47786.4, 73878.7, 96872.3, 118433, 112488, 107410, 103302, 99900.3, 97101.7
0.0308, 0, 44233, 46622, 72935.2, 96009, 117623, 111718, 106671, 102587, 99206.1, 96424.4
0.0312, 0, 43874.4, 45396.5, 71987.9, 95142.5, 116811, 110945, 105929, 101870, 98509.7, 95745.1
0.0316, 0, 43515.8, 43978.5, 71036.6, 94272.7, 115995, 110170, 105184, 101151, 97811.2, 95063.7
0.032, 0, 43157.3, 43176.6, 70081.5, 93399.6, 115177, 109392, 104437, 100429, 97110.5, 94380.3
0.0324, 0, 42798.7, 42801.5, 69122.6, 92523.4, 114356, 108612, 103688, 99705.3, 96407.7, 93694.9
0.0328, 0, 42440.1, 42442.8, 68159.8, 91643.9, 113532, 107829, 102936, 98979.2, 95702.8, 93007.5
0.0332, 0, 42081.6, 42084.2, 67193.2, 90761.3, 112706, 107044, 102182, 98250.8, 94995.9, 92318.1
0.0336, 0, 41723, 41725.5, 66222.8, 89875.4, 111876, 106256, 101426, 97520.3, 94286.8, 91626.7
0.034, 0, 41364.4, 41366.8, 65248.6, 88986.5, 111044, 105465, 100667, 96787.5, 93575.6, 90933.4
0.0344, 0, 41005.8, 41008.2, 64270.6, 88094.3, 110209, 104672, 99906.1, 96052.6, 92862.4, 90238.1
0.0348, 0, 40647.2, 40649.5, 63288.8, 87199.1, 109371, 103876, 99142.7, 95315.5, 92147.2, 89540.9
0.0352, 0, 40288.6, 40290.9, 62303.2, 86300.8, 108531, 103078, 98376.9, 94576.2, 91429.9, 88841.7
0.0356, 0, 39930, 39932.2, 61313.8, 85399.4, 107687, 102277, 97608.9, 93834.8, 90710.6, 88140.6
0.036, 0, 39571.4, 39573.6, 60320.6, 84494.9, 106841, 101474, 96838.5, 93091.2, 89989.3, 87437.6
0.0364, 0, 39212.8, 39214.9, 59323.7, 83587.3, 105992, 100669, 96065.9, 92345.5, 89265.9, 86732.6
0.0368, 0, 38854.2, 38856.2, 58323, 82676.7, 105141, 99860.5, 95291, 91597.7, 88540.6, 86025.8
0.0372, 0, 38495.6, 38497.6, 57318.4, 81763.1, 104287, 99050, 94513.9, 90847.8, 87813.3, 85317.1
0.0376, 0, 38137, 38138.9, 56310.1, 80846.4, 103430, 98237.1, 93734.5, 90095.8, 87084, 84606.6
0.038, 0, 37778.4, 37780.2, 55297.9, 79926.8, 102571, 97421.8, 92952.9, 89341.7, 86352.7, 83894.1
0.0384, 0, 37419.7, 37421.5, 54281.9, 79004.2, 101709, 96604, 92169.1, 88585.5, 85619.5, 83179.8
0.0388, 0, 37061.1, 37062.8, 53262, 78078.6, 100844, 95783.9, 91383, 87827.3, 84884.4, 82463.7
0.0392, 0, 36702.4, 36704.1, 52238.2, 77150, 99976.5, 94961.4, 90594.8, 87067, 84147.3, 81745.7
0.0396, 0, 36343.8, 36345.4, 51210.4, 76218.5, 99106.6, 94136.6, 89804.4, 86304.7, 83408.3, 81025.9
0.04, 0, 35985.1, 35986.7, 50178.7, 75284, 98234.1, 93309.4, 89011.7, 85540.3, 82667.3, 80304.3
0.0404, 0, 35626.5, 35628, 49142.9, 74346.6, 97359, 92479.8, 88217, 84773.9, 81924.5, 79580.9
0.0408, 0, 35267.8, 35269.3, 48102.9, 73406.3, 96481.4, 91647.9, 87420, 84005.5, 81179.8, 78855.7
0.0412, 0, 34909.1, 34910.6, 47058.7, 72463.1, 95601.2, 90813.7, 86621, 83235.1, 80433.2, 78128.7
0.0416, 0, 34550.5, 34551.9, 46010.2, 71517, 94718.5, 89977.2, 85819.8, 82462.7, 79684.7, 77399.9
0.042, 0, 34191.8, 34193.2, 44957.2, 70568, 93833.2, 89138.4, 85016.4, 81688.3, 78934.3, 76669.3
0.0424, 0, 33833.1, 33834.4, 43899.5, 69616.1, 92945.4, 88297.2, 84211, 80911.9, 78182.1, 75936.9
0.0428, 0, 33474.4, 33475.7, 42836.9, 68661.4, 92055.1, 87453.9, 83403.4, 80133.5, 77428, 75202.8
0.0432, 0, 33115.7, 33116.9, 41769.1, 67703.8, 91162.3, 86608.2, 82593.7, 79353.2, 76672, 74467
0.0436, 0, 32756.9, 32758.2, 40695.8, 66743.3, 90267, 85760.3, 81782, 78571, 75914.3, 73729.4
0.044, 0, 32398.2, 32399.4, 39616.4, 65780, 89369.3, 84910.1, 80968.2, 77786.8, 75154.7, 72990
0.0444, 0, 32039.5, 32040.6, 38530.2, 64813.9, 88469, 84057.7, 80152.3, 77000.7, 74393.3, 72248.9
0.0448, 0, 31680.7, 31681.8, 37436.1, 63844.9, 87566.3, 83203, 79334.3, 76212.6, 73630, 71506.1
0.0452, 0, 31322, 31323.1, 36332.8, 62873.1, 86661.2, 82346.2, 78514.3, 75422.6, 72865, 70761.6
0.0456, 0, 30963.2, 30964.3, 35217.8, 61898.5, 85753.6, 81487.1, 77692.2, 74630.7, 72098.1, 70015.4
0.046, 0, 30604.4, 30605.4, 34086.9, 60921.1, 84843.6, 80625.8, 76868.1, 73836.9, 71329.5, 69267.5
0.0464, 0, 30245.6, 30246.6, 32932.1, 59940.9, 83931.2, 79762.3, 76042, 73041.2, 70559.1, 68517.9
0.0468, 0, 29886.8, 29887.8, 31733.9, 58957.9, 83016.3, 78896.7, 75213.8, 72243.7, 69786.9, 67766.6
0.0472, 0, 29528, 29529, 30418.5, 57972.1, 82099.1, 78028.8, 74383.6, 71444.2, 69012.9, 67013.6
0.0476, 0, 29169.2, 29170.1, 29264.3, 56983.4, 81179.5, 77158.8, 73551.5, 70642.9, 68237.1, 66258.9
0.048, 0, 28810.3, 28811.2, 28803.9, 55992, 80257.4, 76286.6, 72717.3, 69839.7, 67459.6, 65502.6
0.0484, 0, 28451.5, 28452.4, 28445.2, 54997.8, 79333, 75412.3, 71881.1, 69034.6, 66680.4, 64744.6
0.0488, 0, 28092.6, 28093.5, 28086.5, 54000.8, 78406.3, 74535.8, 71043, 68227.7, 65899.4, 63984.9
0.0492, 0, 27733.7, 27734.6, 27727.8, 53001, 77477.1, 73657.2, 70202.9, 67419, 65116.7, 63223.6
0.0496, 0, 27374.9, 27375.7, 27369.1, 51998.4, 76545.7, 72776.4, 69360.8, 66608.4, 64332.2, 62460.7
0.05, 0, 27016, 27016.7, 27010.4, 50993.1, 75611.8, 71893.5, 68516.7, 65795.9, 63546, 61696.1
0.0504, 0, 26657, 26657.8, 26651.6, 49984.9, 74675.6, 71008.5, 67670.7, 64981.7, 62758.1, 60929.9
0.0508, 0, 26298.1, 26298.8, 26292.8, 48973.9, 73737.1, 70121.4, 66822.8, 64165.6, 61968.5, 60162.1
0.0512, 0, 25939.1, 25939.9, 25934, 47960, 72796.3, 69232.2, 65972.9, 63347.7, 61177.2, 59392.6
0.0516, 0, 25580.2, 25580.9, 25575.2, 46943.4, 71853.2, 68340.9, 65121, 62528.1, 60384.2, 58621.5
0.052, 0, 25221.2, 25221.9, 25216.4, 45923.9, 70907.7, 67447.5, 64267.3, 61706.6, 59589.5, 57848.9
0.0524, 0, 24862.2, 24862.9, 24857.5, 44901.6, 69960, 66552.1, 63411.6, 60883.3, 58793, 57074.6
0.0528, 0, 24503.2, 24503.8, 24498.6, 43876.3, 69009.9, 65654.5, 62554, 60058.2, 57995, 56298.7
0.0532, 0, 24144.2, 24144.8, 24139.7, 42848.2, 68057.5, 64754.9, 61694.5, 59231.4, 57195.2, 55521.2
0.0536, 0, 23785.1, 23785.7, 23780.8, 41817.2, 67102.9, 63853.2, 60833.1, 58402.8, 56393.7, 54742.1
0.054, 0, 23426, 23426.6, 23421.9, 40783.2, 66146, 62949.5, 59969.8, 57572.4, 55590.6, 53961.5
0.0544, 0, 23066.9, 23067.5, 23062.9, 39746.3, 65186.8, 62043.7, 59104.6, 56740.2, 54785.9, 53179.3
0.0548, 0, 22707.8, 22708.4, 22703.9, 38706.3, 64225.3, 61135.9, 58237.6, 55906.3, 53979.4, 52395.5
0.0552, 0, 22348.7, 22349.2, 22344.9, 37663.3, 63261.6, 60226.1, 57368.6, 55070.6, 53171.4, 51610.1
0.0556, 0, 21989.5, 21990.1, 21985.8, 36617.1, 62295.6, 59314.2, 56497.8, 54233.2, 52361.6, 50823.2
0.056, 0, 21630.4, 21630.9, 21626.8, 35567.8, 61327.4, 58400.2, 55625.1, 53394, 51550.3, 50034.7
0.0564, 0, 21271.2, 21271.6, 21267.7, 34515.2, 60356.9, 57484.3, 54750.6, 52553.1, 50737.2, 49244.6
0.0568, 0, 20911.9, 20912.4, 20908.6, 33459.2, 59384.1, 56566.4, 53874.2, 51710.5, 49922.6, 48453
0.0572, 0, 20552.7, 20553.2, 20549.4, 32399.8, 58409.1, 55646.4, 52995.9, 50866.1, 49106.3, 47659.9
0.0576, 0, 20193.4, 20193.9, 20190.2, 31336.8, 57431.9, 54724.5, 52115.8, 50020, 48288.5, 46865.2
0.058, 0, 19834.1, 19834.6, 19831, 30269.9, 56452.4, 53800.5, 51233.9, 49172.2, 47468.9, 46069
0.0584, 0, 19474.8, 19475.2, 19471.8, 29199.1, 55470.8, 52874.6, 50350.1, 48322.7, 46647.8, 45271.2
0.0588, 0, 19115.5, 19115.9, 19112.6, 28123.9, 54486.8, 51946.6, 49464.5, 47471.5, 45825.1, 44471.9
0.0592, 0, 18756.1, 18756.5, 18753.3, 27044.2, 53500.7, 51016.7, 48577, 46618.6, 45000.8, 43671.1
0.0596, 0, 18396.7, 18397, 18393.9, 25959.3, 52512.3, 50084.8, 47687.8, 45763.9, 44174.8, 42868.8
0.06, 0, 18037.2, 18037.6, 18034.6, 24868.7, 51521.7, 49150.9, 46796.7, 44907.6, 43347.3, 42065
0.0604, 0, 17677.8, 17678.1, 17675.2, 23771.5, 50528.9, 48215.1, 45903.8, 44049.6, 42518.2, 41259.6
0.0608, 0, 17318.3, 17318.6, 17315.8, 22666.4, 49533.8, 47277.3, 45009.1, 43189.9, 41687.4, 40452.7
0.0612, 0, 16958.7, 16959.1, 16956.3, 21551.3, 48536.6, 46337.5, 44112.6, 42328.5, 40855.1, 39644.4
0.0616, 0, 16599.2, 16599.5, 16596.9, 20423, 47537.1, 45395.8, 43214.3, 41465.4, 40021.3, 38834.5
0.062, 0, 16239.6, 16239.9, 16237.3, 19275.2, 46535.4, 44452.1, 42314.2, 40600.7, 39185.8, 38023.1
0.0624, 0, 15879.9, 15880.2, 15877.8, 18094.4, 45531.4, 43506.5, 41412.4, 39734.3, 38348.8, 37210.3
0.0628, 0, 15520.3, 15520.6, 15518.2, 16839, 44525.3, 42558.9, 40508.7, 38866.2, 37510.2, 36395.9
0.0632, 0, 15160.6, 15160.9, 15158.5, 15415.6, 43516.9, 41609.4, 39603.2, 37996.5, 36670, 35580.1
0.0636, 0, 14800.8, 14801.1, 14798.9, 14781.4, 42506.3, 40657.9, 38696, 37125.1, 35828.3, 34762.7
0.064, 0, 14441.1, 14441.3, 14439.2, 14419.6, 41493.4, 39704.6, 37787, 36252, 34985, 33943.9
0.0644, 0, 14081.2, 14081.5, 14079.4, 14060.5, 40478.3, 38749.2, 36876.2, 35377.3, 34140.1, 33123.6
0.0648, 0, 13721.4, 13721.6, 13719.6, 13701.4, 39461, 37792, 35963.7, 34500.9, 33293.7, 32301.8
0.0652, 0, 13361.5, 13361.7, 13359.8, 13342.2, 38441.4, 36832.8, 35049.4, 33622.9, 32445.7, 31478.6
0.0656, 0, 13001.5, 13001.7, 12999.9, 12982.9, 37419.6, 35871.7, 34133.3, 32743.3, 31596.2, 30653.9
0.066, 0, 12641.5, 12641.7, 12639.9, 12623.6, 36395.5, 34908.7, 33215.5, 31862, 30745.2, 29827.7
0.0664, 0, 12281.5, 12281.7, 12279.9, 12264.2, 35369.1, 33943.8, 32295.9, 30979.1, 29892.6, 29000
0.0668, 0, 11921.4, 11921.6, 11919.9, 11904.8, 34340.4, 32976.9, 31374.5, 30094.5, 29038.4, 28170.9
0.0672, 0, 11561.2, 11561.4, 11559.8, 11545.3, 33309.4, 32008.2, 30451.4, 29208.3, 28182.8, 27340.3
0.0676, 0, 11201, 11201.2, 11199.7, 11185.7, 32276.1, 31037.5, 29526.6, 28320.5, 27325.6, 26508.3
0.068, 0, 10840.8, 10841, 10839.5, 10826.1, 31240.5, 30064.9, 28600, 27431, 26466.8, 25674.8
0.0684, 0, 10480.5, 10480.7, 10479.3, 10466.4, 30202.5, 29090.4, 27671.7, 26540, 25606.6, 24839.9
0.0688, 0, 10120.2, 10120.3, 10119, 10106.6, 29162.1, 28114, 26741.6, 25647.3, 24744.8, 24003.5
0.0692, 0, 9759.75, 9759.91, 9758.61, 9746.78, 28119.3, 27135.7, 25809.8, 24753, 23881.4, 23165.6
0.0696, 0, 9399.28, 9399.44, 9398.19, 9386.88, 27074.1, 26155.5, 24876.3, 23857, 23016.6, 22326.3
0.07, 0, 9038.76, 9038.9, 9037.71, 9026.91, 26026.4, 25173.4, 23941, 22959.5, 22150.2, 21485.6
0.0704, 0, 8678.17, 8678.31, 8677.17, 8666.87, 24976.1, 24189.4, 23004, 22060.3, 21282.3, 20643.4
0.0708, 0, 8317.52, 8317.65, 8316.57, 8306.75, 23923.3, 23203.5, 22065.3, 21159.5, 20412.9, 19799.8
0.0712, 0, 7956.8, 7956.93, 7955.9, 7946.56, 22867.9, 22215.7, 21124.8, 20257.2, 19542, 18954.7
0.0716, 0, 7596.02, 7596.13, 7595.16, 7586.3, 21809.8, 21226, 20182.7, 19353.2, 18669.5, 18108.2
0.072, 0, 7235.16, 7235.27, 7234.35, 7225.96, 20748.9, 20234.3, 19238.7, 18447.6, 17795.6, 17260.2
0.0724, 0, 6874.24, 6874.34, 6873.47, 6865.54, 19685.1, 19240.8, 18293.1, 17540.4, 16920.1, 16410.8
0.0728, 0, 6513.24, 6513.34, 6512.51, 6505.04, 18618.4, 18245.4, 17345.8, 16631.6, 16043.1, 15560
0.0732, 0, 6152.16, 6152.26, 6151.48, 6144.45, 17548.6, 17248.1, 16396.7, 15721.2, 15164.6, 14707.7
0.0736, 0, 5791.01, 5791.1, 5790.37, 5783.79, 16475.4, 16248.8, 15445.9, 14809.1, 14284.6, 13854
0.074, 0, 5429.78, 5429.86, 5429.18, 5423.03, 15398.9, 15247.7, 14493.4, 13895.5, 13403.1, 12998.9
0.0744, 0, 5068.47, 5068.54, 5067.91, 5062.19, 14318.5, 14244.7, 13539.2, 12980.3, 12520.1, 12142.3
0.0748, 0, 4707.07, 4707.14, 4706.56, 4701.26, 13234.1, 13239.7, 12583.2, 12063.5, 11635.6, 11284.3
0.0752, 0, 4345.58, 4345.65, 4345.11, 4340.24, 12145.3, 12232.8, 11625.6, 11145.1, 10749.6, 10424.8
0.0756, 0, 3984.01, 3984.07, 3983.58, 3979.13, 11051.4, 11224, 10666.2, 10225.1, 9862.01, 9563.97
0.076, 0, 3622.34, 3622.4, 3621.95, 3617.92, 9951.62, 10213.3, 9705.08, 9303.51, 8972.97, 8701.66
0.0764, 0, 3260.58, 3260.63, 3260.23, 3256.61, 8844.91, 9200.69, 8742.27, 8380.31, 8082.42, 7837.92
0.0768, 0, 2898.72, 2898.77, 2898.41, 2895.2, 7729.55, 8186.13, 7777.74, 7455.52, 7190.36, 6972.74
0.0772, 0, 2536.76, 2536.8, 2536.49, 2533.69, 6602.82, 7169.64, 6811.49, 6529.13, 6296.8, 6106.13
0.0776, 0, 2174.7, 2174.74, 2174.47, 2172.07, 5459.91, 6151.21, 5843.52, 5601.14, 5401.73, 5238.09
0.078, 0, 1812.54, 1812.56, 1812.34, 1810.35, 4291.04, 5130.83, 4873.84, 4671.55, 4505.16, 4368.61
0.0784, 0, 1450.26, 1450.28, 1450.11, 1448.51, 3070.6, 4108.5, 3902.44, 3740.37, 3607.08, 3497.7
0.0788, 0, 1087.87, 1087.89, 1087.76, 1086.56, 1682.46, 3084.22, 2929.31, 2807.59, 2707.49, 2625.35
0.0792, 0, 725.367, 725.378, 725.29, 724.494, 757.348, 2057.97, 1954.47, 1873.2, 1806.39, 1751.56
0.0796, 0, 362.745, 362.75, 362.706, 362.308, 359.871, 1029.75, 977.9, 937.221, 903.78, 876.341
0.08, 0, -8.89597e-037, -8.89604e-037, -8.8955e-037, -8.89059e-037, -8.86053e-037, -8.86788e-037, -8.86924e-037, -8.87041e-037, -8.87144e-037, -8.87233e-037
